{
  "$schema": "0-3-0/system.schema.json",
  "system0": {
    "class": "System",
    "connections": [
      ["p2.flnum_in", "p1.flnum_out"]
    ],
    "subsystems": {
      "p1": {
        "class": "pressurelossvarious.PressureLoss0D",
        "inputs": {
          "flnum_in.Pt": 100000.0,
          "flnum_in.W": 10.0
        }
      },
      "p2": {
        "class": "pressurelossvarious.PressureLoss0D"
      }
    }
  }
}